EESchema Schematic File Version 4
EELAYER 30 0
EELAYER END
$Descr A4 11693 8268
encoding utf-8
Sheet 1 4
Title ""
Date ""
Rev ""
Comp ""
Comment1 ""
Comment2 ""
Comment3 ""
Comment4 ""
$EndDescr
$Comp
L Device:R R1
U 1 1 5DF3D0A3
P 7800 4750
F 0 "R1" H 7870 4796 50  0000 L CNN
F 1 "R" H 7870 4705 50  0000 L CNN
F 2 "Resistor_THT:R_Axial_DIN0207_L6.3mm_D2.5mm_P7.62mm_Horizontal" V 7730 4750 50  0001 C CNN
F 3 "~" H 7800 4750 50  0001 C CNN
	1    7800 4750
	1    0    0    -1  
$EndComp
$Comp
L Device:R R2
U 1 1 5DF3D7B0
P 7800 5200
F 0 "R2" H 7870 5246 50  0000 L CNN
F 1 "R" H 7870 5155 50  0000 L CNN
F 2 "Resistor_THT:R_Axial_DIN0207_L6.3mm_D2.5mm_P7.62mm_Horizontal" V 7730 5200 50  0001 C CNN
F 3 "~" H 7800 5200 50  0001 C CNN
	1    7800 5200
	1    0    0    -1  
$EndComp
$Comp
L Device:CP C3
U 1 1 5DF2AEAB
P 7500 4750
F 0 "C3" H 7618 4796 50  0000 L CNN
F 1 "CP" H 7618 4705 50  0000 L CNN
F 2 "" H 7538 4600 50  0001 C CNN
F 3 "~" H 7500 4750 50  0001 C CNN
	1    7500 4750
	1    0    0    -1  
$EndComp
$Comp
L Device:CP C4
U 1 1 5DF2B73C
P 7500 5200
F 0 "C4" H 7618 5246 50  0000 L CNN
F 1 "CP" H 7618 5155 50  0000 L CNN
F 2 "" H 7538 5050 50  0001 C CNN
F 3 "~" H 7500 5200 50  0001 C CNN
	1    7500 5200
	1    0    0    -1  
$EndComp
Wire Wire Line
	7800 5050 7800 4950
Wire Wire Line
	7500 5050 7500 4950
Wire Wire Line
	7800 4450 7800 4600
Wire Wire Line
	7800 5500 7800 5350
Wire Wire Line
	7500 5350 7500 5500
Wire Wire Line
	7500 5500 7800 5500
Wire Wire Line
	7500 4600 7500 4450
Wire Wire Line
	7500 4450 7800 4450
Connection ~ 7500 4950
Wire Wire Line
	7500 4950 7500 4900
$Comp
L Device:C C1
U 1 1 5DF62C8F
P 7200 4750
F 0 "C1" H 7315 4796 50  0000 L CNN
F 1 "150nF" H 7315 4705 50  0000 L CNN
F 2 "Capacitor_THT:C_Rect_L7.0mm_W2.5mm_P5.00mm" H 7238 4600 50  0001 C CNN
F 3 "~" H 7200 4750 50  0001 C CNN
	1    7200 4750
	1    0    0    -1  
$EndComp
$Comp
L Device:C C2
U 1 1 5DF634A9
P 7200 5200
F 0 "C2" H 7315 5246 50  0000 L CNN
F 1 "150nF" H 7315 5155 50  0000 L CNN
F 2 "Capacitor_THT:C_Rect_L7.0mm_W2.5mm_P5.00mm" H 7238 5050 50  0001 C CNN
F 3 "~" H 7200 5200 50  0001 C CNN
	1    7200 5200
	1    0    0    -1  
$EndComp
Wire Wire Line
	7200 5350 7200 5500
Wire Wire Line
	7200 5500 7500 5500
Connection ~ 7500 5500
Wire Wire Line
	7200 5050 7200 4950
Connection ~ 7200 4950
Wire Wire Line
	7200 4950 7200 4900
Wire Wire Line
	7200 4950 7500 4950
Wire Wire Line
	7200 4600 7200 4450
Wire Wire Line
	7200 4450 7500 4450
Connection ~ 7500 4450
Wire Wire Line
	7500 4450 7500 4400
Wire Wire Line
	7500 5550 7500 5500
$Sheet
S 3500 1300 2000 1350
U 5DF8C731
F0 "Crossover" 50
F1 "Crossover.sch" 50
$EndSheet
Wire Wire Line
	7500 4950 7800 4950
Connection ~ 7800 4950
Wire Wire Line
	7800 4950 7800 4900
$Sheet
S 6050 1300 1950 1400
U 5DFE9CF1
F0 "Subsonic Filter" 50
F1 "Subsonic-Filter.sch" 50
$EndSheet
$Sheet
S 8850 1350 1750 1400
U 5E046AF9
F0 "Output Stage" 50
F1 "Output-Stage.sch" 50
$EndSheet
Text GLabel 3650 4050 0    50   Output ~ 0
CROSSOVER_OUT_LOW
Text GLabel 4100 4050 2    50   Output ~ 0
SUBSONIC_FILTER_IN
Wire Wire Line
	3650 4050 4100 4050
$Comp
L power:GND #PWR?
U 1 1 5E0A9713
P 6900 5000
F 0 "#PWR?" H 6900 4750 50  0001 C CNN
F 1 "GND" H 6905 4827 50  0000 C CNN
F 2 "" H 6900 5000 50  0001 C CNN
F 3 "" H 6900 5000 50  0001 C CNN
	1    6900 5000
	1    0    0    -1  
$EndComp
Wire Wire Line
	6900 5000 6900 4950
Wire Wire Line
	6900 4950 7200 4950
$Comp
L power:+12V #PWR?
U 1 1 5E0ABBDA
P 7500 4400
F 0 "#PWR?" H 7500 4250 50  0001 C CNN
F 1 "+12V" H 7515 4573 50  0000 C CNN
F 2 "" H 7500 4400 50  0001 C CNN
F 3 "" H 7500 4400 50  0001 C CNN
	1    7500 4400
	1    0    0    -1  
$EndComp
$Comp
L power:-12V #PWR?
U 1 1 5E0ABF7C
P 7500 5550
F 0 "#PWR?" H 7500 5650 50  0001 C CNN
F 1 "-12V" H 7515 5723 50  0000 C CNN
F 2 "" H 7500 5550 50  0001 C CNN
F 3 "" H 7500 5550 50  0001 C CNN
	1    7500 5550
	-1   0    0    1   
$EndComp
$EndSCHEMATC
