EESchema Schematic File Version 4
EELAYER 30 0
EELAYER END
$Descr A4 11693 8268
encoding utf-8
Sheet 3 4
Title ""
Date ""
Rev ""
Comp ""
Comment1 ""
Comment2 ""
Comment3 ""
Comment4 ""
$EndDescr
Text GLabel 2400 1650 0    50   Input ~ 0
SUBSONIC_FILTER_IN
$Comp
L Device:C C12
U 1 1 5DFEC54C
P 2850 1650
F 0 "C12" V 2598 1650 50  0000 C CNN
F 1 "150nF" V 2689 1650 50  0000 C CNN
F 2 "Capacitor_THT:C_Rect_L7.0mm_W2.5mm_P5.00mm" H 2888 1500 50  0001 C CNN
F 3 "~" H 2850 1650 50  0001 C CNN
	1    2850 1650
	0    1    1    0   
$EndComp
$Comp
L Device:C C13
U 1 1 5DFEC947
P 3400 1650
F 0 "C13" V 3148 1650 50  0000 C CNN
F 1 "150nF" V 3239 1650 50  0000 C CNN
F 2 "Capacitor_THT:C_Rect_L7.0mm_W2.5mm_P5.00mm" H 3438 1500 50  0001 C CNN
F 3 "~" H 3400 1650 50  0001 C CNN
	1    3400 1650
	0    1    1    0   
$EndComp
$Comp
L Device:C C14
U 1 1 5DFECAA2
P 3950 1650
F 0 "C14" V 3698 1650 50  0000 C CNN
F 1 "150nF" V 3789 1650 50  0000 C CNN
F 2 "Capacitor_THT:C_Rect_L7.0mm_W2.5mm_P5.00mm" H 3988 1500 50  0001 C CNN
F 3 "~" H 3950 1650 50  0001 C CNN
	1    3950 1650
	0    1    1    0   
$EndComp
$Comp
L Device:C C15
U 1 1 5DFECC6C
P 5600 1650
F 0 "C15" V 5348 1650 50  0000 C CNN
F 1 "150nF" V 5439 1650 50  0000 C CNN
F 2 "Capacitor_THT:C_Rect_L7.0mm_W2.5mm_P5.00mm" H 5638 1500 50  0001 C CNN
F 3 "~" H 5600 1650 50  0001 C CNN
	1    5600 1650
	0    1    1    0   
$EndComp
$Comp
L Device:C C16
U 1 1 5DFECCE6
P 6100 1650
F 0 "C16" V 5848 1650 50  0000 C CNN
F 1 "150nF" V 5939 1650 50  0000 C CNN
F 2 "Capacitor_THT:C_Rect_L7.0mm_W2.5mm_P5.00mm" H 6138 1500 50  0001 C CNN
F 3 "~" H 6100 1650 50  0001 C CNN
	1    6100 1650
	0    1    1    0   
$EndComp
$Comp
L Device:C C17
U 1 1 5DFECD6E
P 6650 1650
F 0 "C17" V 6398 1650 50  0000 C CNN
F 1 "150nF" V 6489 1650 50  0000 C CNN
F 2 "Capacitor_THT:C_Rect_L7.0mm_W2.5mm_P5.00mm" H 6688 1500 50  0001 C CNN
F 3 "~" H 6650 1650 50  0001 C CNN
	1    6650 1650
	0    1    1    0   
$EndComp
$Comp
L Amplifier_Operational:TL072 U3
U 1 1 5DFED0B2
P 4650 1750
F 0 "U3" H 4650 2117 50  0000 C CNN
F 1 "TL072" H 4650 2026 50  0000 C CNN
F 2 "Package_DIP:DIP-8_W7.62mm_Socket" H 4650 1750 50  0001 C CNN
F 3 "http://www.ti.com/lit/ds/symlink/tl071.pdf" H 4650 1750 50  0001 C CNN
	1    4650 1750
	1    0    0    -1  
$EndComp
$Comp
L Amplifier_Operational:TL072 U3
U 2 1 5DFF0DE2
P 7300 1750
F 0 "U3" H 7300 2117 50  0000 C CNN
F 1 "TL072" H 7300 2026 50  0000 C CNN
F 2 "Package_DIP:DIP-8_W7.62mm_Socket" H 7300 1750 50  0001 C CNN
F 3 "http://www.ti.com/lit/ds/symlink/tl071.pdf" H 7300 1750 50  0001 C CNN
	2    7300 1750
	1    0    0    -1  
$EndComp
$Comp
L Amplifier_Operational:TL072 U3
U 3 1 5DFF2164
P 10750 3450
F 0 "U3" H 10708 3496 50  0000 L CNN
F 1 "TL072" H 10708 3405 50  0000 L CNN
F 2 "Package_DIP:DIP-8_W7.62mm_Socket" H 10750 3450 50  0001 C CNN
F 3 "http://www.ti.com/lit/ds/symlink/tl071.pdf" H 10750 3450 50  0001 C CNN
	3    10750 3450
	1    0    0    -1  
$EndComp
Wire Wire Line
	2400 1650 2600 1650
Wire Wire Line
	3000 1650 3100 1650
Wire Wire Line
	3550 1650 3650 1650
Wire Wire Line
	5750 1650 5850 1650
Wire Wire Line
	6250 1650 6350 1650
Wire Wire Line
	4350 1650 4200 1650
Wire Wire Line
	4350 1850 4200 1850
Wire Wire Line
	4200 1850 4200 2050
Wire Wire Line
	4200 2050 5050 2050
Wire Wire Line
	5050 2050 5050 1750
Wire Wire Line
	5050 1750 4950 1750
Wire Wire Line
	7000 1650 6850 1650
Wire Wire Line
	7000 1850 6950 1850
Wire Wire Line
	7800 2100 7800 1750
Wire Wire Line
	7800 1750 7600 1750
$Comp
L Device:R R16
U 1 1 5E0056B3
P 3100 2000
F 0 "R16" H 3170 2046 50  0000 L CNN
F 1 "100k" H 3170 1955 50  0000 L CNN
F 2 "Resistor_THT:R_Axial_DIN0207_L6.3mm_D2.5mm_P7.62mm_Horizontal" V 3030 2000 50  0001 C CNN
F 3 "~" H 3100 2000 50  0001 C CNN
	1    3100 2000
	1    0    0    -1  
$EndComp
$Comp
L Device:R R18
U 1 1 5E00720E
P 4050 2000
F 0 "R18" H 4120 2046 50  0000 L CNN
F 1 "220k" H 4120 1955 50  0000 L CNN
F 2 "Resistor_THT:R_Axial_DIN0207_L6.3mm_D2.5mm_P7.62mm_Horizontal" V 3980 2000 50  0001 C CNN
F 3 "~" H 4050 2000 50  0001 C CNN
	1    4050 2000
	1    0    0    -1  
$EndComp
$Comp
L Device:R R19
U 1 1 5E00767D
P 5850 2000
F 0 "R19" H 5920 2046 50  0000 L CNN
F 1 "100k" H 5920 1955 50  0000 L CNN
F 2 "Resistor_THT:R_Axial_DIN0207_L6.3mm_D2.5mm_P7.62mm_Horizontal" V 5780 2000 50  0001 C CNN
F 3 "~" H 5850 2000 50  0001 C CNN
	1    5850 2000
	1    0    0    -1  
$EndComp
$Comp
L Device:R R21
U 1 1 5E007919
P 6700 2000
F 0 "R21" H 6770 2046 50  0000 L CNN
F 1 "220k" H 6770 1955 50  0000 L CNN
F 2 "Resistor_THT:R_Axial_DIN0207_L6.3mm_D2.5mm_P7.62mm_Horizontal" V 6630 2000 50  0001 C CNN
F 3 "~" H 6700 2000 50  0001 C CNN
	1    6700 2000
	1    0    0    -1  
$EndComp
$Comp
L Device:R R17
U 1 1 5E007BC1
P 3650 1300
F 0 "R17" H 3720 1346 50  0000 L CNN
F 1 "47k" H 3720 1255 50  0000 L CNN
F 2 "Resistor_THT:R_Axial_DIN0207_L6.3mm_D2.5mm_P7.62mm_Horizontal" V 3580 1300 50  0001 C CNN
F 3 "~" H 3650 1300 50  0001 C CNN
	1    3650 1300
	1    0    0    -1  
$EndComp
$Comp
L Device:R R20
U 1 1 5E007E75
P 6350 1350
F 0 "R20" H 6420 1396 50  0000 L CNN
F 1 "47k" H 6420 1305 50  0000 L CNN
F 2 "Resistor_THT:R_Axial_DIN0207_L6.3mm_D2.5mm_P7.62mm_Horizontal" V 6280 1350 50  0001 C CNN
F 3 "~" H 6350 1350 50  0001 C CNN
	1    6350 1350
	1    0    0    -1  
$EndComp
$Comp
L Device:R R22
U 1 1 5E008246
P 8150 1750
F 0 "R22" V 7943 1750 50  0000 C CNN
F 1 "100R" V 8034 1750 50  0000 C CNN
F 2 "Resistor_THT:R_Axial_DIN0207_L6.3mm_D2.5mm_P7.62mm_Horizontal" V 8080 1750 50  0001 C CNN
F 3 "~" H 8150 1750 50  0001 C CNN
	1    8150 1750
	0    1    1    0   
$EndComp
$Comp
L Device:C C19
U 1 1 5E00A29F
P 10350 3450
F 0 "C19" H 10465 3496 50  0000 L CNN
F 1 "100nF" H 10465 3405 50  0000 L CNN
F 2 "" H 10388 3300 50  0001 C CNN
F 3 "~" H 10350 3450 50  0001 C CNN
	1    10350 3450
	1    0    0    -1  
$EndComp
Wire Wire Line
	3100 1850 3100 1650
Connection ~ 3100 1650
Wire Wire Line
	3100 1650 3250 1650
Wire Wire Line
	4050 1850 4050 1750
Wire Wire Line
	4050 1750 4200 1750
Wire Wire Line
	4200 1750 4200 1650
Connection ~ 4200 1650
Wire Wire Line
	4200 1650 4100 1650
Wire Wire Line
	3100 2350 3100 2150
Wire Wire Line
	4050 2350 4050 2150
Wire Wire Line
	5850 2350 5850 2150
Wire Wire Line
	5850 1850 5850 1650
Connection ~ 5850 1650
Wire Wire Line
	5850 1650 5950 1650
Wire Wire Line
	6700 1850 6700 1800
Wire Wire Line
	6700 1800 6850 1800
Wire Wire Line
	6850 1800 6850 1650
Connection ~ 6850 1650
Wire Wire Line
	6850 1650 6800 1650
Wire Wire Line
	6700 2300 6700 2150
Wire Wire Line
	5050 1750 5250 1750
Wire Wire Line
	5250 1750 5250 1650
Wire Wire Line
	5250 1650 5450 1650
Connection ~ 5050 1750
Wire Wire Line
	7800 1750 8000 1750
Connection ~ 7800 1750
Wire Wire Line
	6950 1850 6950 2100
Wire Wire Line
	6950 2100 7800 2100
Wire Wire Line
	3650 1450 3650 1650
Connection ~ 3650 1650
Wire Wire Line
	3650 1650 3800 1650
Wire Wire Line
	3650 1150 3650 1000
Wire Wire Line
	3650 1000 5050 1000
Wire Wire Line
	5050 1000 5050 1750
Wire Wire Line
	6350 1500 6350 1650
Connection ~ 6350 1650
Wire Wire Line
	6350 1650 6500 1650
Wire Wire Line
	6350 1200 6350 1000
Wire Wire Line
	6350 1000 7800 1000
Wire Wire Line
	7800 1000 7800 1750
Text GLabel 8500 1750 2    50   Output ~ 0
SUBSONIC_FILTER_OUT
Wire Wire Line
	8500 1750 8400 1750
$Comp
L Device:C C18
U 1 1 5E01F00A
P 10100 3450
F 0 "C18" H 10215 3496 50  0000 L CNN
F 1 "100nF" H 10215 3405 50  0000 L CNN
F 2 "" H 10138 3300 50  0001 C CNN
F 3 "~" H 10100 3450 50  0001 C CNN
	1    10100 3450
	1    0    0    -1  
$EndComp
Wire Wire Line
	10650 3150 10650 2950
Wire Wire Line
	10650 2950 10350 2950
Wire Wire Line
	10100 2950 10100 3300
Wire Wire Line
	10650 3750 10650 3900
Wire Wire Line
	10650 3900 10350 3900
Wire Wire Line
	10100 3900 10100 3600
Wire Wire Line
	10350 3300 10350 2950
Connection ~ 10350 2950
Wire Wire Line
	10350 2950 10100 2950
Wire Wire Line
	10350 3600 10350 3900
Connection ~ 10350 3900
Wire Wire Line
	10350 3900 10100 3900
Wire Wire Line
	10350 4050 10350 3900
Wire Wire Line
	10350 2950 10350 2800
$Comp
L Connector:TestPoint TP4
U 1 1 5E028981
P 2600 1550
F 0 "TP4" H 2658 1668 50  0000 L CNN
F 1 "TestPoint" H 2658 1577 50  0000 L CNN
F 2 "TestPoint:TestPoint_THTPad_2.0x2.0mm_Drill1.0mm" H 2800 1550 50  0001 C CNN
F 3 "~" H 2800 1550 50  0001 C CNN
	1    2600 1550
	1    0    0    -1  
$EndComp
$Comp
L Connector:TestPoint TP5
U 1 1 5E02997C
P 8400 1600
F 0 "TP5" H 8458 1718 50  0000 L CNN
F 1 "TestPoint" H 8458 1627 50  0000 L CNN
F 2 "TestPoint:TestPoint_THTPad_2.0x2.0mm_Drill1.0mm" H 8600 1600 50  0001 C CNN
F 3 "~" H 8600 1600 50  0001 C CNN
	1    8400 1600
	1    0    0    -1  
$EndComp
Wire Wire Line
	8400 1600 8400 1750
Connection ~ 8400 1750
Wire Wire Line
	8400 1750 8300 1750
Wire Wire Line
	2600 1550 2600 1650
Connection ~ 2600 1650
Wire Wire Line
	2600 1650 2700 1650
Text Notes 4900 2950 0    50   ~ 0
Got this schematic from this URL:\nhttps://sound-au.com/project99.htm
$Comp
L power:GND #PWR?
U 1 1 5E0A4DB7
P 3100 2350
F 0 "#PWR?" H 3100 2100 50  0001 C CNN
F 1 "GND" H 3105 2177 50  0000 C CNN
F 2 "" H 3100 2350 50  0001 C CNN
F 3 "" H 3100 2350 50  0001 C CNN
	1    3100 2350
	1    0    0    -1  
$EndComp
$Comp
L power:GND #PWR?
U 1 1 5E0A5281
P 4050 2350
F 0 "#PWR?" H 4050 2100 50  0001 C CNN
F 1 "GND" H 4055 2177 50  0000 C CNN
F 2 "" H 4050 2350 50  0001 C CNN
F 3 "" H 4050 2350 50  0001 C CNN
	1    4050 2350
	1    0    0    -1  
$EndComp
$Comp
L power:GND #PWR?
U 1 1 5E0A5555
P 5850 2350
F 0 "#PWR?" H 5850 2100 50  0001 C CNN
F 1 "GND" H 5855 2177 50  0000 C CNN
F 2 "" H 5850 2350 50  0001 C CNN
F 3 "" H 5850 2350 50  0001 C CNN
	1    5850 2350
	1    0    0    -1  
$EndComp
$Comp
L power:GND #PWR?
U 1 1 5E0A5831
P 6700 2300
F 0 "#PWR?" H 6700 2050 50  0001 C CNN
F 1 "GND" H 6705 2127 50  0000 C CNN
F 2 "" H 6700 2300 50  0001 C CNN
F 3 "" H 6700 2300 50  0001 C CNN
	1    6700 2300
	1    0    0    -1  
$EndComp
$Comp
L power:-12V #PWR?
U 1 1 5E0A5ED6
P 10350 4050
F 0 "#PWR?" H 10350 4150 50  0001 C CNN
F 1 "-12V" H 10365 4223 50  0000 C CNN
F 2 "" H 10350 4050 50  0001 C CNN
F 3 "" H 10350 4050 50  0001 C CNN
	1    10350 4050
	-1   0    0    1   
$EndComp
$Comp
L power:+12V #PWR?
U 1 1 5E0A718D
P 10350 2800
F 0 "#PWR?" H 10350 2650 50  0001 C CNN
F 1 "+12V" H 10365 2973 50  0000 C CNN
F 2 "" H 10350 2800 50  0001 C CNN
F 3 "" H 10350 2800 50  0001 C CNN
	1    10350 2800
	1    0    0    -1  
$EndComp
$EndSCHEMATC
